skel_new_THEREEEEEEALONE/simulation/qsim/skeleton.msim.vcd
$comment
	File created using the following command:
		vcd file skeleton.msim.vcd -direction
$end
$date
	Mon Apr 24 17:35:49 2017
$end
$version
	ModelSim Version 10.5b
$end
$timescale
	1ps
$end

$scope module random_vlg_vec_tst $end
$var reg 1 ! clock $end
$var reg 1 " reset $end
$var wire 1 # data [31] $end
$var wire 1 $ data [30] $end
$var wire 1 % data [29] $end
$var wire 1 & data [28] $end
$var wire 1 ' data [27] $end
$var wire 1 ( data [26] $end
$var wire 1 ) data [25] $end
$var wire 1 * data [24] $end
$var wire 1 + data [23] $end
$var wire 1 , data [22] $end
$var wire 1 - data [21] $end
$var wire 1 . data [20] $end
$var wire 1 / data [19] $end
$var wire 1 0 data [18] $end
$var wire 1 1 data [17] $end
$var wire 1 2 data [16] $end
$var wire 1 3 data [15] $end
$var wire 1 4 data [14] $end
$var wire 1 5 data [13] $end
$var wire 1 6 data [12] $end
$var wire 1 7 data [11] $end
$var wire 1 8 data [10] $end
$var wire 1 9 data [9] $end
$var wire 1 : data [8] $end
$var wire 1 ; data [7] $end
$var wire 1 < data [6] $end
$var wire 1 = data [5] $end
$var wire 1 > data [4] $end
$var wire 1 ? data [3] $end
$var wire 1 @ data [2] $end
$var wire 1 A data [1] $end
$var wire 1 B data [0] $end
$var wire 1 C small_data [2] $end
$var wire 1 D small_data [1] $end
$var wire 1 E small_data [0] $end

$scope module i1 $end
$var wire 1 F gnd $end
$var wire 1 G vcc $end
$var wire 1 H unknown $end
$var tri1 1 I devclrn $end
$var tri1 1 J devpor $end
$var tri1 1 K devoe $end
$var wire 1 L data[0]~output_o $end
$var wire 1 M data[1]~output_o $end
$var wire 1 N data[2]~output_o $end
$var wire 1 O data[3]~output_o $end
$var wire 1 P data[4]~output_o $end
$var wire 1 Q data[5]~output_o $end
$var wire 1 R data[6]~output_o $end
$var wire 1 S data[7]~output_o $end
$var wire 1 T data[8]~output_o $end
$var wire 1 U data[9]~output_o $end
$var wire 1 V data[10]~output_o $end
$var wire 1 W data[11]~output_o $end
$var wire 1 X data[12]~output_o $end
$var wire 1 Y data[13]~output_o $end
$var wire 1 Z data[14]~output_o $end
$var wire 1 [ data[15]~output_o $end
$var wire 1 \ data[16]~output_o $end
$var wire 1 ] data[17]~output_o $end
$var wire 1 ^ data[18]~output_o $end
$var wire 1 _ data[19]~output_o $end
$var wire 1 ` data[20]~output_o $end
$var wire 1 a data[21]~output_o $end
$var wire 1 b data[22]~output_o $end
$var wire 1 c data[23]~output_o $end
$var wire 1 d data[24]~output_o $end
$var wire 1 e data[25]~output_o $end
$var wire 1 f data[26]~output_o $end
$var wire 1 g data[27]~output_o $end
$var wire 1 h data[28]~output_o $end
$var wire 1 i data[29]~output_o $end
$var wire 1 j data[30]~output_o $end
$var wire 1 k data[31]~output_o $end
$var wire 1 l small_data[0]~output_o $end
$var wire 1 m small_data[1]~output_o $end
$var wire 1 n small_data[2]~output_o $end
$var wire 1 o clock~input_o $end
$var wire 1 p clock~inputclkctrl_outclk $end
$var wire 1 q reset~input_o $end
$var wire 1 r reset~inputclkctrl_outclk $end
$var wire 1 s data[3]~reg0_q $end
$var wire 1 t data[1]~1_combout $end
$var wire 1 u data[1]~reg0_q $end
$var wire 1 v data[4]~reg0_q $end
$var wire 1 w data[2]~reg0_q $end
$var wire 1 x data[0]~0_combout $end
$var wire 1 y data[0]~reg0_q $end
$var wire 1 z Add0~0_combout $end
$var wire 1 { Add0~1_combout $end
$var wire 1 | data_next [31] $end
$var wire 1 } data_next [30] $end
$var wire 1 ~ data_next [29] $end
$var wire 1 !! data_next [28] $end
$var wire 1 "! data_next [27] $end
$var wire 1 #! data_next [26] $end
$var wire 1 $! data_next [25] $end
$var wire 1 %! data_next [24] $end
$var wire 1 &! data_next [23] $end
$var wire 1 '! data_next [22] $end
$var wire 1 (! data_next [21] $end
$var wire 1 )! data_next [20] $end
$var wire 1 *! data_next [19] $end
$var wire 1 +! data_next [18] $end
$var wire 1 ,! data_next [17] $end
$var wire 1 -! data_next [16] $end
$var wire 1 .! data_next [15] $end
$var wire 1 /! data_next [14] $end
$var wire 1 0! data_next [13] $end
$var wire 1 1! data_next [12] $end
$var wire 1 2! data_next [11] $end
$var wire 1 3! data_next [10] $end
$var wire 1 4! data_next [9] $end
$var wire 1 5! data_next [8] $end
$var wire 1 6! data_next [7] $end
$var wire 1 7! data_next [6] $end
$var wire 1 8! data_next [5] $end
$var wire 1 9! data_next [4] $end
$var wire 1 :! data_next [3] $end
$var wire 1 ;! data_next [2] $end
$var wire 1 <! data_next [1] $end
$var wire 1 =! data_next [0] $end
$upscope $end
$upscope $end
$enddefinitions $end
#0
$dumpvars
0!
0"
1B
1A
1@
1?
1>
0=
0<
0;
0:
09
08
07
06
05
04
03
02
01
00
0/
0.
0-
0,
0+
0*
0)
0(
0'
0&
0%
0$
0#
0E
0D
1C
0F
1G
xH
1I
1J
1K
1L
1M
1N
1O
1P
0Q
0R
0S
0T
0U
0V
0W
0X
0Y
0Z
0[
0\
0]
0^
0_
0`
0a
0b
0c
0d
0e
0f
0g
0h
0i
0j
0k
0l
0m
1n
0o
0p
0q
0r
0s
0t
0u
0v
0w
1x
0y
0z
1{
z=!
z<!
0;!
1:!
19!
z8!
z7!
z6!
z5!
z4!
z3!
z2!
z1!
z0!
z/!
z.!
z-!
z,!
z+!
z*!
z)!
z(!
z'!
z&!
z%!
z$!
z#!
z"!
z!!
z~
z}
z|
$end
#10000
1!
1"
1o
1q
1r
1p
#20000
0!
0o
0p
#30000
0"
1!
0q
1o
0r
1p
1v
1s
1y
0L
1l
0O
0P
0>
0?
1E
0B
1;!
09!
0{
1z
1m
0n
0C
1D
#40000
0!
0o
0p
#50000
1!
1o
1p
1w
0v
1P
0N
0@
1>
19!
#60000
0!
0o
0p
#70000
1!
1o
1p
1v
0P
0>
0x
0;!
09!
#80000
0!
0o
0p
#90000
1!
1o
1p
0w
0v
0y
1L
0l
1P
1N
1@
1>
0E
1B
1x
19!
1{
0z
1t
0:!
0m
1n
1C
0D
#100000
0!
0o
0p
#110000
1!
1o
1p
1v
1u
0s
1y
0L
1l
1O
0M
0P
0>
0A
1?
1E
0B
0x
0{
0t
0n
0C
#120000
0!
0o
0p
#130000
1!
1o
1p
0u
0y
1L
0l
1M
1A
0E
1B
1{
1;!
09!
1:!
1n
1C
#140000
0!
0o
0p
#150000
1!
1o
1p
1w
0v
1s
0O
1P
0N
0@
1>
0?
19!
1t
0:!
#160000
0!
0o
0p
#170000
1!
1o
1p
1v
1u
0s
1O
0M
0P
0>
0A
1?
0{
1z
1:!
1m
0n
0C
1D
#180000
0!
0o
0p
#190000
1!
1o
1p
1s
0O
0?
0t
0:!
#200000
0!
0o
0p
#210000
1!
1o
1p
0u
0s
1O
1M
1A
1?
1{
0z
1x
0;!
09!
1:!
0m
1n
1C
0D
#220000
0!
0o
0p
#230000
1!
1o
1p
0w
0v
1s
1y
0L
1l
0O
1P
1N
1@
1>
0?
1E
0B
0x
19!
0{
1z
1m
0n
0C
1D
#240000
0!
0o
0p
#250000
1!
1o
1p
1v
0y
1L
0l
0P
0>
0E
1B
1;!
09!
1{
0z
1t
0:!
0m
1n
1C
0D
#260000
0!
0o
0p
#270000
1!
1o
1p
1w
0v
1u
0s
1O
0M
1P
0N
0@
1>
0A
1?
1x
0;!
0{
1z
1:!
1m
0n
0C
1D
#280000
0!
0o
0p
#290000
1!
1o
1p
0w
1s
1y
0L
1l
0O
1N
1@
0?
1E
0B
1;!
0z
0m
0D
#300000
0!
0o
0p
#310000
1!
1o
1p
1w
0N
0@
0x
0;!
#320000
0!
0o
0p
#330000
1!
1o
1p
0w
0y
1L
0l
1N
1@
0E
1B
1;!
1z
0t
0:!
1m
1D
#340000
0!
0o
0p
#350000
1!
1o
1p
1w
0u
0s
1O
1M
0N
0@
1A
1?
1{
0z
19!
1:!
0m
1n
1C
0D
#360000
0!
0o
0p
#370000
1!
1o
1p
1v
1s
0O
0P
0>
0?
1x
0;!
09!
1t
0:!
#380000
0!
0o
0p
#390000
1!
1o
1p
0w
0v
1u
0s
1y
0L
1l
1O
0M
1P
1N
1@
1>
0A
1?
1E
0B
1;!
0{
0t
0n
0C
#400000
0!
0o
0p
#410000
1!
1o
1p
1w
0u
1M
0N
0@
1A
1z
19!
1t
1m
1D
#420000
0!
0o
0p
#430000
1!
1o
1p
1v
1u
0M
0P
0>
0A
0z
0t
0m
0D
#440000
0!
0o
0p
#450000
1!
1o
1p
0u
1M
1A
1z
0x
0;!
09!
1t
1m
1D
#460000
0!
0o
0p
#470000
1!
1o
1p
0w
0v
1u
0y
1L
0l
0M
1P
1N
1@
1>
0A
0E
1B
1;!
1:!
#480000
0!
0o
0p
#490000
1!
1o
1p
1w
1s
0O
0N
0@
0?
1x
0;!
0t
0:!
#500000
0!
0o
0p
#510000
1!
1o
1p
0w
0u
0s
1y
0L
1l
1O
1M
1N
1@
1A
1?
1E
0B
0x
19!
1t
#520000
0!
0o
0p
#530000
1!
1o
1p
1v
1u
0y
1L
0l
0M
0P
0>
0A
0E
1B
1x
1:!
#540000
0!
0o
0p
#550000
1!
1o
1p
1s
1y
0L
1l
0O
0?
1E
0B
0z
0x
0m
0D
#560000
0!
0o
0p
#570000
1!
1o
1p
0y
1L
0l
0E
1B
1z
1x
0t
0:!
1m
1D
#580000
0!
0o
0p
#590000
1!
1o
1p
0u
0s
1y
0L
1l
1O
1M
1A
1?
1E
0B
1;!
09!
1t
#600000
0!
0o
0p
#610000
1!
1o
1p
1w
0v
1u
0M
1P
0N
0@
1>
0A
0x
0;!
0z
0t
0m
0D
#620000
0!
0o
0p
#630000
1!
1o
1p
0w
0u
0y
1L
0l
1M
1N
1@
1A
0E
1B
1x
1{
19!
1:!
1n
1C
#640000
0!
0o
0p
#650000
1!
1o
1p
1v
1s
1y
0L
1l
0O
0P
0>
0?
1E
0B
1;!
09!
0{
1z
1m
0n
0C
1D
#660000
0!
0o
0p
#670000
1!
1o
1p
1w
0v
1P
0N
0@
1>
19!
#680000
0!
0o
0p
#690000
1!
1o
1p
1v
0P
0>
0x
0;!
09!
#700000
0!
0o
0p
#710000
1!
1o
1p
0w
0v
0y
1L
0l
1P
1N
1@
1>
0E
1B
1x
19!
1{
0z
1t
0:!
0m
1n
1C
0D
#720000
0!
0o
0p
#730000
1!
1o
1p
1v
1u
0s
1y
0L
1l
1O
0M
0P
0>
0A
1?
1E
0B
0x
0{
0t
0n
0C
#740000
0!
0o
0p
#750000
1!
1o
1p
0u
0y
1L
0l
1M
1A
0E
1B
1{
1;!
09!
1:!
1n
1C
#760000
0!
0o
0p
#770000
1!
1o
1p
1w
0v
1s
0O
1P
0N
0@
1>
0?
19!
1t
0:!
#780000
0!
0o
0p
#790000
1!
1o
1p
1v
1u
0s
1O
0M
0P
0>
0A
1?
0{
1z
1:!
1m
0n
0C
1D
#800000
0!
0o
0p
#810000
1!
1o
1p
1s
0O
0?
0t
0:!
#820000
0!
0o
0p
#830000
1!
1o
1p
0u
0s
1O
1M
1A
1?
1{
0z
1x
0;!
09!
1:!
0m
1n
1C
0D
#840000
0!
0o
0p
#850000
1!
1o
1p
0w
0v
1s
1y
0L
1l
0O
1P
1N
1@
1>
0?
1E
0B
0x
19!
0{
1z
1m
0n
0C
1D
#860000
0!
0o
0p
#870000
1!
1o
1p
1v
0y
1L
0l
0P
0>
0E
1B
1;!
09!
1{
0z
1t
0:!
0m
1n
1C
0D
#880000
0!
0o
0p
#890000
1!
1o
1p
1w
0v
1u
0s
1O
0M
1P
0N
0@
1>
0A
1?
1x
0;!
0{
1z
1:!
1m
0n
0C
1D
#900000
0!
0o
0p
#910000
1!
1o
1p
0w
1s
1y
0L
1l
0O
1N
1@
0?
1E
0B
1;!
0z
0m
0D
#920000
0!
0o
0p
#930000
1!
1o
1p
1w
0N
0@
0x
0;!
#940000
0!
0o
0p
#950000
1!
1o
1p
0w
0y
1L
0l
1N
1@
0E
1B
1;!
1z
0t
0:!
1m
1D
#960000
0!
0o
0p
#970000
1!
1o
1p
1w
0u
0s
1O
1M
0N
0@
1A
1?
1{
0z
19!
1:!
0m
1n
1C
0D
#980000
0!
0o
0p
#990000
1!
1o
1p
1v
1s
0O
0P
0>
0?
1x
0;!
09!
1t
0:!
